; ModuleID = 'illegal.c'
target datalayout = "e-p:32:32:32-i1:8:8-i8:8:8-i16:16:16-i32:32:32-i64:32:64-f32:32:32-f64:32:64-v64:64:64-v128:128:128-a0:0:64-f80:32:32-n8:16:32"
target triple = "i386-pc-linux-gnu"

%struct.__jmp_buf_tag = type { [6 x i32], i32, %struct.__sigset_t }
%struct.__sigset_t = type { [32 x i32] }

@.str = private constant [18 x i8] c"ignoring (ENOMEM)\00", align 1
@.str1 = private constant [18 x i8] c"ignoring (EACCES)\00", align 1
@.str2 = private constant [17 x i8] c"ignoring (EPERM)\00", align 1
@.str3 = private constant [10 x i8] c"illegal.c\00", align 1
@.str4 = private constant [20 x i8] c"longjmp unsupported\00", align 1
@.str5 = private constant [8 x i8] c"xxx.err\00", align 1
@.str6 = private constant [9 x i8] c"ignoring\00", align 1

define i32 @kill(i32 %pid, i32 %sig) nounwind {
entry:
  tail call void @llvm.dbg.value(metadata !{i32 %pid}, i64 0, metadata !70), !dbg !75
  tail call void @llvm.dbg.value(metadata !{i32 %sig}, i64 0, metadata !71), !dbg !75
  tail call void @klee_warning(i8* getelementptr inbounds ([17 x i8]* @.str2, i32 0, i32 0)) nounwind, !dbg !76
  %0 = tail call i32* @__errno_location() nounwind readnone, !dbg !78
  store i32 1, i32* %0, align 4, !dbg !78
  ret i32 -1, !dbg !79
}

define i32 @fork() nounwind {
entry:
  tail call void @klee_warning(i8* getelementptr inbounds ([18 x i8]* @.str, i32 0, i32 0)) nounwind, !dbg !80
  %0 = tail call i32* @__errno_location() nounwind readnone, !dbg !82
  store i32 12, i32* %0, align 4, !dbg !82
  ret i32 -1, !dbg !83
}

declare void @klee_warning(i8*)

declare i32* @__errno_location() nounwind readnone

define i32 @vfork() nounwind {
entry:
  tail call void @klee_warning(i8* getelementptr inbounds ([18 x i8]* @.str, i32 0, i32 0)) nounwind, !dbg !84
  %0 = tail call i32* @__errno_location() nounwind readnone, !dbg !87
  store i32 12, i32* %0, align 4, !dbg !87
  ret i32 -1, !dbg !85
}

define weak i32 @execve(i8* %file, i8** %argv, i8** %envp) nounwind {
entry:
  tail call void @llvm.dbg.value(metadata !{i8* %file}, i64 0, metadata !57), !dbg !88
  tail call void @llvm.dbg.value(metadata !{i8** %argv}, i64 0, metadata !58), !dbg !88
  tail call void @llvm.dbg.value(metadata !{i8** %envp}, i64 0, metadata !59), !dbg !88
  tail call void @klee_warning(i8* getelementptr inbounds ([18 x i8]* @.str1, i32 0, i32 0)) nounwind, !dbg !88
  %0 = tail call i32* @__errno_location() nounwind readnone, !dbg !88
  store i32 13, i32* %0, align 4, !dbg !88
  ret i32 -1, !dbg !89
}

declare void @llvm.dbg.value(metadata, i64, metadata) nounwind readnone

define weak i32 @execvp(i8* %file, i8** %argv) nounwind {
entry:
  tail call void @llvm.dbg.value(metadata !{i8* %file}, i64 0, metadata !60), !dbg !91
  tail call void @llvm.dbg.value(metadata !{i8** %argv}, i64 0, metadata !61), !dbg !91
  tail call void @klee_warning(i8* getelementptr inbounds ([18 x i8]* @.str1, i32 0, i32 0)) nounwind, !dbg !91
  %0 = tail call i32* @__errno_location() nounwind readnone, !dbg !91
  store i32 13, i32* %0, align 4, !dbg !91
  ret i32 -1, !dbg !92
}

define weak i32 @execv(i8* %path, i8** %argv) nounwind {
entry:
  tail call void @llvm.dbg.value(metadata !{i8* %path}, i64 0, metadata !62), !dbg !94
  tail call void @llvm.dbg.value(metadata !{i8** %argv}, i64 0, metadata !63), !dbg !94
  tail call void @klee_warning(i8* getelementptr inbounds ([18 x i8]* @.str1, i32 0, i32 0)) nounwind, !dbg !94
  %0 = tail call i32* @__errno_location() nounwind readnone, !dbg !94
  store i32 13, i32* %0, align 4, !dbg !94
  ret i32 -1, !dbg !95
}

define weak i32 @execle(i8* %path, i8* %arg, ...) nounwind {
entry:
  call void @llvm.dbg.value(metadata !{i8* %path}, i64 0, metadata !64), !dbg !97
  call void @llvm.dbg.value(metadata !{i8* %arg}, i64 0, metadata !65), !dbg !97
  call void @klee_warning(i8* getelementptr inbounds ([18 x i8]* @.str1, i32 0, i32 0)) nounwind, !dbg !97
  %0 = call i32* @__errno_location() nounwind readnone, !dbg !97
  store i32 13, i32* %0, align 4, !dbg !97
  ret i32 -1, !dbg !98
}

define weak i32 @execlp(i8* %file, i8* %arg, ...) nounwind {
entry:
  call void @llvm.dbg.value(metadata !{i8* %file}, i64 0, metadata !66), !dbg !100
  call void @llvm.dbg.value(metadata !{i8* %arg}, i64 0, metadata !67), !dbg !100
  call void @klee_warning(i8* getelementptr inbounds ([18 x i8]* @.str1, i32 0, i32 0)) nounwind, !dbg !100
  %0 = call i32* @__errno_location() nounwind readnone, !dbg !100
  store i32 13, i32* %0, align 4, !dbg !100
  ret i32 -1, !dbg !101
}

define weak i32 @execl(i8* %path, i8* %arg, ...) nounwind {
entry:
  call void @llvm.dbg.value(metadata !{i8* %path}, i64 0, metadata !68), !dbg !103
  call void @llvm.dbg.value(metadata !{i8* %arg}, i64 0, metadata !69), !dbg !103
  call void @klee_warning(i8* getelementptr inbounds ([18 x i8]* @.str1, i32 0, i32 0)) nounwind, !dbg !103
  %0 = call i32* @__errno_location() nounwind readnone, !dbg !103
  store i32 13, i32* %0, align 4, !dbg !103
  ret i32 -1, !dbg !104
}

define void @longjmp(%struct.__jmp_buf_tag* nocapture %env, i32 %val) noreturn nounwind {
entry:
  tail call void @llvm.dbg.value(metadata !{%struct.__jmp_buf_tag* %env}, i64 0, metadata !72), !dbg !106
  tail call void @llvm.dbg.value(metadata !{i32 %val}, i64 0, metadata !73), !dbg !106
  tail call void @klee_report_error(i8* getelementptr inbounds ([10 x i8]* @.str3, i32 0, i32 0), i32 35, i8* getelementptr inbounds ([20 x i8]* @.str4, i32 0, i32 0), i8* getelementptr inbounds ([8 x i8]* @.str5, i32 0, i32 0)) noreturn nounwind, !dbg !107
  unreachable, !dbg !107
}

declare void @klee_report_error(i8*, i32, i8*, i8*) noreturn

define weak i32 @_setjmp(%struct.__jmp_buf_tag* %__env) nounwind {
entry:
  tail call void @llvm.dbg.value(metadata !{%struct.__jmp_buf_tag* %__env}, i64 0, metadata !74), !dbg !109
  tail call void @klee_warning_once(i8* getelementptr inbounds ([9 x i8]* @.str6, i32 0, i32 0)) nounwind, !dbg !110
  ret i32 0, !dbg !112
}

declare void @klee_warning_once(i8*)

!llvm.dbg.sp = !{!0, !8, !9, !18, !21, !22, !25, !26, !27, !30, !54}
!llvm.dbg.lv.execve = !{!57, !58, !59}
!llvm.dbg.lv.execvp = !{!60, !61}
!llvm.dbg.lv.execv = !{!62, !63}
!llvm.dbg.lv.execle = !{!64, !65}
!llvm.dbg.lv.execlp = !{!66, !67}
!llvm.dbg.lv.execl = !{!68, !69}
!llvm.dbg.lv.kill = !{!70, !71}
!llvm.dbg.lv.longjmp = !{!72, !73}
!llvm.dbg.lv._setjmp = !{!74}

!0 = metadata !{i32 524334, i32 0, metadata !1, metadata !"fork", metadata !"fork", metadata !"fork", metadata !1, i32 62, metadata !3, i1 false, i1 true, i32 0, i32 0, null, i1 false, i1 true, i32 ()* @fork} ; [ DW_TAG_subprogram ]
!1 = metadata !{i32 524329, metadata !"illegal.c", metadata !"/home/you/Work/klee/runtime/POSIX/", metadata !2} ; [ DW_TAG_file_type ]
!2 = metadata !{i32 524305, i32 0, i32 1, metadata !"illegal.c", metadata !"/home/you/Work/klee/runtime/POSIX/", metadata !"4.2.1 (Based on Apple Inc. build 5658) (LLVM build 2.8)", i1 true, i1 true, metadata !"", i32 0} ; [ DW_TAG_compile_unit ]
!3 = metadata !{i32 524309, metadata !1, metadata !"", metadata !1, i32 0, i64 0, i64 0, i64 0, i32 0, null, metadata !4, i32 0, null} ; [ DW_TAG_subroutine_type ]
!4 = metadata !{metadata !5}
!5 = metadata !{i32 524310, metadata !6, metadata !"pid_t", metadata !6, i32 268, i64 0, i64 0, i64 0, i32 0, metadata !7} ; [ DW_TAG_typedef ]
!6 = metadata !{i32 524329, metadata !"unistd.h", metadata !"/usr/include", metadata !2} ; [ DW_TAG_file_type ]
!7 = metadata !{i32 524324, metadata !1, metadata !"int", metadata !1, i32 0, i64 32, i64 32, i64 0, i32 0, i32 5} ; [ DW_TAG_base_type ]
!8 = metadata !{i32 524334, i32 0, metadata !1, metadata !"vfork", metadata !"vfork", metadata !"vfork", metadata !1, i32 68, metadata !3, i1 false, i1 true, i32 0, i32 0, null, i1 false, i1 true, i32 ()* @vfork} ; [ DW_TAG_subprogram ]
!9 = metadata !{i32 524334, i32 0, metadata !1, metadata !"execve", metadata !"execve", metadata !"execve", metadata !1, i32 60, metadata !10, i1 false, i1 true, i32 0, i32 0, null, i1 false, i1 true, i32 (i8*, i8**, i8**)* @execve} ; [ DW_TAG_subprogram ]
!10 = metadata !{i32 524309, metadata !1, metadata !"", metadata !1, i32 0, i64 0, i64 0, i64 0, i32 0, null, metadata !11, i32 0, null} ; [ DW_TAG_subroutine_type ]
!11 = metadata !{metadata !7, metadata !12, metadata !15, metadata !15}
!12 = metadata !{i32 524303, metadata !1, metadata !"", metadata !1, i32 0, i64 32, i64 32, i64 0, i32 0, metadata !13} ; [ DW_TAG_pointer_type ]
!13 = metadata !{i32 524326, metadata !1, metadata !"", metadata !1, i32 0, i64 8, i64 8, i64 0, i32 0, metadata !14} ; [ DW_TAG_const_type ]
!14 = metadata !{i32 524324, metadata !1, metadata !"char", metadata !1, i32 0, i64 8, i64 8, i64 0, i32 0, i32 6} ; [ DW_TAG_base_type ]
!15 = metadata !{i32 524303, metadata !1, metadata !"", metadata !1, i32 0, i64 32, i64 32, i64 0, i32 0, metadata !16} ; [ DW_TAG_pointer_type ]
!16 = metadata !{i32 524326, metadata !1, metadata !"", metadata !1, i32 0, i64 32, i64 32, i64 0, i32 0, metadata !17} ; [ DW_TAG_const_type ]
!17 = metadata !{i32 524303, metadata !1, metadata !"", metadata !1, i32 0, i64 32, i64 32, i64 0, i32 0, metadata !14} ; [ DW_TAG_pointer_type ]
!18 = metadata !{i32 524334, i32 0, metadata !1, metadata !"execvp", metadata !"execvp", metadata !"execvp", metadata !1, i32 59, metadata !19, i1 false, i1 true, i32 0, i32 0, null, i1 false, i1 true, i32 (i8*, i8**)* @execvp} ; [ DW_TAG_subprogram ]
!19 = metadata !{i32 524309, metadata !1, metadata !"", metadata !1, i32 0, i64 0, i64 0, i64 0, i32 0, null, metadata !20, i32 0, null} ; [ DW_TAG_subroutine_type ]
!20 = metadata !{metadata !7, metadata !12, metadata !15}
!21 = metadata !{i32 524334, i32 0, metadata !1, metadata !"execv", metadata !"execv", metadata !"execv", metadata !1, i32 58, metadata !19, i1 false, i1 true, i32 0, i32 0, null, i1 false, i1 true, i32 (i8*, i8**)* @execv} ; [ DW_TAG_subprogram ]
!22 = metadata !{i32 524334, i32 0, metadata !1, metadata !"execle", metadata !"execle", metadata !"execle", metadata !1, i32 57, metadata !23, i1 false, i1 true, i32 0, i32 0, null, i1 false, i1 true, i32 (i8*, i8*, ...)* @execle} ; [ DW_TAG_subprogram ]
!23 = metadata !{i32 524309, metadata !1, metadata !"", metadata !1, i32 0, i64 0, i64 0, i64 0, i32 0, null, metadata !24, i32 0, null} ; [ DW_TAG_subroutine_type ]
!24 = metadata !{metadata !7, metadata !12, metadata !12}
!25 = metadata !{i32 524334, i32 0, metadata !1, metadata !"execlp", metadata !"execlp", metadata !"execlp", metadata !1, i32 56, metadata !23, i1 false, i1 true, i32 0, i32 0, null, i1 false, i1 true, i32 (i8*, i8*, ...)* @execlp} ; [ DW_TAG_subprogram ]
!26 = metadata !{i32 524334, i32 0, metadata !1, metadata !"execl", metadata !"execl", metadata !"execl", metadata !1, i32 55, metadata !23, i1 false, i1 true, i32 0, i32 0, null, i1 false, i1 true, i32 (i8*, i8*, ...)* @execl} ; [ DW_TAG_subprogram ]
!27 = metadata !{i32 524334, i32 0, metadata !1, metadata !"kill", metadata !"kill", metadata !"kill", metadata !1, i32 22, metadata !28, i1 false, i1 true, i32 0, i32 0, null, i1 false, i1 true, i32 (i32, i32)* @kill} ; [ DW_TAG_subprogram ]
!28 = metadata !{i32 524309, metadata !1, metadata !"", metadata !1, i32 0, i64 0, i64 0, i64 0, i32 0, null, metadata !29, i32 0, null} ; [ DW_TAG_subroutine_type ]
!29 = metadata !{metadata !7, metadata !5, metadata !7}
!30 = metadata !{i32 524334, i32 0, metadata !1, metadata !"longjmp", metadata !"longjmp", metadata !"longjmp", metadata !1, i32 34, metadata !31, i1 false, i1 true, i32 0, i32 0, null, i1 false, i1 true, void (%struct.__jmp_buf_tag*, i32)* @longjmp} ; [ DW_TAG_subprogram ]
!31 = metadata !{i32 524309, metadata !1, metadata !"", metadata !1, i32 0, i64 0, i64 0, i64 0, i32 0, null, metadata !32, i32 0, null} ; [ DW_TAG_subroutine_type ]
!32 = metadata !{null, metadata !33, metadata !7}
!33 = metadata !{i32 524303, metadata !1, metadata !"", metadata !1, i32 0, i64 32, i64 32, i64 0, i32 0, metadata !34} ; [ DW_TAG_pointer_type ]
!34 = metadata !{i32 524307, metadata !1, metadata !"__jmp_buf_tag", metadata !35, i32 36, i64 1248, i64 32, i64 0, i32 0, null, metadata !36, i32 0, null} ; [ DW_TAG_structure_type ]
!35 = metadata !{i32 524329, metadata !"setjmp.h", metadata !"/usr/include", metadata !2} ; [ DW_TAG_file_type ]
!36 = metadata !{metadata !37, metadata !42, metadata !43}
!37 = metadata !{i32 524301, metadata !34, metadata !"__jmpbuf", metadata !35, i32 41, i64 192, i64 32, i64 0, i32 0, metadata !38} ; [ DW_TAG_member ]
!38 = metadata !{i32 524310, metadata !35, metadata !"__jmp_buf", metadata !35, i32 36, i64 0, i64 0, i64 0, i32 0, metadata !39} ; [ DW_TAG_typedef ]
!39 = metadata !{i32 524289, metadata !1, metadata !"", metadata !1, i32 0, i64 192, i64 32, i64 0, i32 0, metadata !7, metadata !40, i32 0, null} ; [ DW_TAG_array_type ]
!40 = metadata !{metadata !41}
!41 = metadata !{i32 524321, i64 0, i64 5}        ; [ DW_TAG_subrange_type ]
!42 = metadata !{i32 524301, metadata !34, metadata !"__mask_was_saved", metadata !35, i32 42, i64 32, i64 32, i64 192, i32 0, metadata !7} ; [ DW_TAG_member ]
!43 = metadata !{i32 524301, metadata !34, metadata !"__saved_mask", metadata !35, i32 43, i64 1024, i64 32, i64 224, i32 0, metadata !44} ; [ DW_TAG_member ]
!44 = metadata !{i32 524310, metadata !45, metadata !"__sigset_t", metadata !45, i32 41, i64 0, i64 0, i64 0, i32 0, metadata !46} ; [ DW_TAG_typedef ]
!45 = metadata !{i32 524329, metadata !"signal.h", metadata !"/usr/include", metadata !2} ; [ DW_TAG_file_type ]
!46 = metadata !{i32 524307, metadata !1, metadata !"", metadata !47, i32 30, i64 1024, i64 32, i64 0, i32 0, null, metadata !48, i32 0, null} ; [ DW_TAG_structure_type ]
!47 = metadata !{i32 524329, metadata !"sigset.h", metadata !"/usr/include/i386-linux-gnu/bits", metadata !2} ; [ DW_TAG_file_type ]
!48 = metadata !{metadata !49}
!49 = metadata !{i32 524301, metadata !46, metadata !"__val", metadata !47, i32 31, i64 1024, i64 32, i64 0, i32 0, metadata !50} ; [ DW_TAG_member ]
!50 = metadata !{i32 524289, metadata !1, metadata !"", metadata !1, i32 0, i64 1024, i64 32, i64 0, i32 0, metadata !51, metadata !52, i32 0, null} ; [ DW_TAG_array_type ]
!51 = metadata !{i32 524324, metadata !1, metadata !"long unsigned int", metadata !1, i32 0, i64 32, i64 32, i64 0, i32 0, i32 7} ; [ DW_TAG_base_type ]
!52 = metadata !{metadata !53}
!53 = metadata !{i32 524321, i64 0, i64 31}       ; [ DW_TAG_subrange_type ]
!54 = metadata !{i32 524334, i32 0, metadata !1, metadata !"_setjmp", metadata !"_setjmp", metadata !"_setjmp", metadata !1, i32 29, metadata !55, i1 false, i1 true, i32 0, i32 0, null, i1 false, i1 true, i32 (%struct.__jmp_buf_tag*)* @_setjmp} ; [ DW_TAG_subprogram ]
!55 = metadata !{i32 524309, metadata !1, metadata !"", metadata !1, i32 0, i64 0, i64 0, i64 0, i32 0, null, metadata !56, i32 0, null} ; [ DW_TAG_subroutine_type ]
!56 = metadata !{metadata !7, metadata !33}
!57 = metadata !{i32 524545, metadata !9, metadata !"file", metadata !1, i32 60, metadata !12} ; [ DW_TAG_arg_variable ]
!58 = metadata !{i32 524545, metadata !9, metadata !"argv", metadata !1, i32 60, metadata !15} ; [ DW_TAG_arg_variable ]
!59 = metadata !{i32 524545, metadata !9, metadata !"envp", metadata !1, i32 60, metadata !15} ; [ DW_TAG_arg_variable ]
!60 = metadata !{i32 524545, metadata !18, metadata !"file", metadata !1, i32 59, metadata !12} ; [ DW_TAG_arg_variable ]
!61 = metadata !{i32 524545, metadata !18, metadata !"argv", metadata !1, i32 59, metadata !15} ; [ DW_TAG_arg_variable ]
!62 = metadata !{i32 524545, metadata !21, metadata !"path", metadata !1, i32 58, metadata !12} ; [ DW_TAG_arg_variable ]
!63 = metadata !{i32 524545, metadata !21, metadata !"argv", metadata !1, i32 58, metadata !15} ; [ DW_TAG_arg_variable ]
!64 = metadata !{i32 524545, metadata !22, metadata !"path", metadata !1, i32 57, metadata !12} ; [ DW_TAG_arg_variable ]
!65 = metadata !{i32 524545, metadata !22, metadata !"arg", metadata !1, i32 57, metadata !12} ; [ DW_TAG_arg_variable ]
!66 = metadata !{i32 524545, metadata !25, metadata !"file", metadata !1, i32 56, metadata !12} ; [ DW_TAG_arg_variable ]
!67 = metadata !{i32 524545, metadata !25, metadata !"arg", metadata !1, i32 56, metadata !12} ; [ DW_TAG_arg_variable ]
!68 = metadata !{i32 524545, metadata !26, metadata !"path", metadata !1, i32 55, metadata !12} ; [ DW_TAG_arg_variable ]
!69 = metadata !{i32 524545, metadata !26, metadata !"arg", metadata !1, i32 55, metadata !12} ; [ DW_TAG_arg_variable ]
!70 = metadata !{i32 524545, metadata !27, metadata !"pid", metadata !1, i32 22, metadata !5} ; [ DW_TAG_arg_variable ]
!71 = metadata !{i32 524545, metadata !27, metadata !"sig", metadata !1, i32 22, metadata !7} ; [ DW_TAG_arg_variable ]
!72 = metadata !{i32 524545, metadata !30, metadata !"env", metadata !1, i32 34, metadata !33} ; [ DW_TAG_arg_variable ]
!73 = metadata !{i32 524545, metadata !30, metadata !"val", metadata !1, i32 34, metadata !7} ; [ DW_TAG_arg_variable ]
!74 = metadata !{i32 524545, metadata !54, metadata !"__env", metadata !1, i32 29, metadata !33} ; [ DW_TAG_arg_variable ]
!75 = metadata !{i32 22, i32 0, metadata !27, null}
!76 = metadata !{i32 23, i32 0, metadata !77, null}
!77 = metadata !{i32 524299, metadata !27, i32 22, i32 0, metadata !1, i32 8} ; [ DW_TAG_lexical_block ]
!78 = metadata !{i32 24, i32 0, metadata !77, null}
!79 = metadata !{i32 25, i32 0, metadata !77, null}
!80 = metadata !{i32 63, i32 0, metadata !81, null}
!81 = metadata !{i32 524299, metadata !0, i32 62, i32 0, metadata !1, i32 0} ; [ DW_TAG_lexical_block ]
!82 = metadata !{i32 64, i32 0, metadata !81, null}
!83 = metadata !{i32 65, i32 0, metadata !81, null}
!84 = metadata !{i32 63, i32 0, metadata !81, metadata !85}
!85 = metadata !{i32 69, i32 0, metadata !86, null}
!86 = metadata !{i32 524299, metadata !8, i32 68, i32 0, metadata !1, i32 1} ; [ DW_TAG_lexical_block ]
!87 = metadata !{i32 64, i32 0, metadata !81, metadata !85}
!88 = metadata !{i32 60, i32 0, metadata !9, null}
!89 = metadata !{i32 60, i32 0, metadata !90, null}
!90 = metadata !{i32 524299, metadata !9, i32 60, i32 0, metadata !1, i32 2} ; [ DW_TAG_lexical_block ]
!91 = metadata !{i32 59, i32 0, metadata !18, null}
!92 = metadata !{i32 59, i32 0, metadata !93, null}
!93 = metadata !{i32 524299, metadata !18, i32 59, i32 0, metadata !1, i32 3} ; [ DW_TAG_lexical_block ]
!94 = metadata !{i32 58, i32 0, metadata !21, null}
!95 = metadata !{i32 58, i32 0, metadata !96, null}
!96 = metadata !{i32 524299, metadata !21, i32 58, i32 0, metadata !1, i32 4} ; [ DW_TAG_lexical_block ]
!97 = metadata !{i32 57, i32 0, metadata !22, null}
!98 = metadata !{i32 57, i32 0, metadata !99, null}
!99 = metadata !{i32 524299, metadata !22, i32 57, i32 0, metadata !1, i32 5} ; [ DW_TAG_lexical_block ]
!100 = metadata !{i32 56, i32 0, metadata !25, null}
!101 = metadata !{i32 56, i32 0, metadata !102, null}
!102 = metadata !{i32 524299, metadata !25, i32 56, i32 0, metadata !1, i32 6} ; [ DW_TAG_lexical_block ]
!103 = metadata !{i32 55, i32 0, metadata !26, null}
!104 = metadata !{i32 55, i32 0, metadata !105, null}
!105 = metadata !{i32 524299, metadata !26, i32 55, i32 0, metadata !1, i32 7} ; [ DW_TAG_lexical_block ]
!106 = metadata !{i32 34, i32 0, metadata !30, null}
!107 = metadata !{i32 35, i32 0, metadata !108, null}
!108 = metadata !{i32 524299, metadata !30, i32 34, i32 0, metadata !1, i32 9} ; [ DW_TAG_lexical_block ]
!109 = metadata !{i32 29, i32 0, metadata !54, null}
!110 = metadata !{i32 30, i32 0, metadata !111, null}
!111 = metadata !{i32 524299, metadata !54, i32 29, i32 0, metadata !1, i32 10} ; [ DW_TAG_lexical_block ]
!112 = metadata !{i32 31, i32 0, metadata !111, null}
