; ModuleID = 'strchr.c'
target datalayout = "e-p:32:32:32-i1:8:8-i8:8:8-i16:16:16-i32:32:32-i64:32:64-f32:32:32-f64:32:64-v64:64:64-v128:128:128-a0:0:64-f80:32:32-n8:16:32"
target triple = "i386-pc-linux-gnu"

define i8* @strchr(i8* %p, i32 %ch) nounwind readonly {
entry:
  tail call void @llvm.dbg.value(metadata !{i8* %p}, i64 0, metadata !10), !dbg !14
  tail call void @llvm.dbg.value(metadata !{i32 %ch}, i64 0, metadata !11), !dbg !14
  %0 = trunc i32 %ch to i8, !dbg !15
  tail call void @llvm.dbg.value(metadata !{i8 %0}, i64 0, metadata !12), !dbg !15
  br label %bb, !dbg !15

bb:                                               ; preds = %bb4, %entry
  %indvar = phi i32 [ %indvar.next, %bb4 ], [ 0, %entry ]
  %p_addr.0 = getelementptr i8* %p, i32 %indvar
  %1 = load i8* %p_addr.0, align 1, !dbg !16
  %2 = icmp eq i8 %1, %0, !dbg !16
  br i1 %2, label %bb5, label %bb2, !dbg !16

bb2:                                              ; preds = %bb
  %3 = icmp eq i8 %1, 0, !dbg !17
  br i1 %3, label %bb5, label %bb4, !dbg !17

bb4:                                              ; preds = %bb2
  %indvar.next = add i32 %indvar, 1
  br label %bb, !dbg !18

bb5:                                              ; preds = %bb2, %bb
  %.0 = phi i8* [ %p_addr.0, %bb ], [ null, %bb2 ]
  ret i8* %.0, !dbg !19
}

declare void @llvm.dbg.value(metadata, i64, metadata) nounwind readnone

!llvm.dbg.sp = !{!0}
!llvm.dbg.lv.strchr = !{!10, !11, !12}

!0 = metadata !{i32 524334, i32 0, metadata !1, metadata !"strchr", metadata !"strchr", metadata !"strchr", metadata !1, i32 10, metadata !3, i1 false, i1 true, i32 0, i32 0, null, i1 false, i1 true, i8* (i8*, i32)* @strchr} ; [ DW_TAG_subprogram ]
!1 = metadata !{i32 524329, metadata !"strchr.c", metadata !"/home/you/Work/klee/runtime/klee-libc/", metadata !2} ; [ DW_TAG_file_type ]
!2 = metadata !{i32 524305, i32 0, i32 1, metadata !"strchr.c", metadata !"/home/you/Work/klee/runtime/klee-libc/", metadata !"4.2.1 (Based on Apple Inc. build 5658) (LLVM build 2.8)", i1 true, i1 true, metadata !"", i32 0} ; [ DW_TAG_compile_unit ]
!3 = metadata !{i32 524309, metadata !1, metadata !"", metadata !1, i32 0, i64 0, i64 0, i64 0, i32 0, null, metadata !4, i32 0, null} ; [ DW_TAG_subroutine_type ]
!4 = metadata !{metadata !5, metadata !7, metadata !9}
!5 = metadata !{i32 524303, metadata !1, metadata !"", metadata !1, i32 0, i64 32, i64 32, i64 0, i32 0, metadata !6} ; [ DW_TAG_pointer_type ]
!6 = metadata !{i32 524324, metadata !1, metadata !"char", metadata !1, i32 0, i64 8, i64 8, i64 0, i32 0, i32 6} ; [ DW_TAG_base_type ]
!7 = metadata !{i32 524303, metadata !1, metadata !"", metadata !1, i32 0, i64 32, i64 32, i64 0, i32 0, metadata !8} ; [ DW_TAG_pointer_type ]
!8 = metadata !{i32 524326, metadata !1, metadata !"", metadata !1, i32 0, i64 8, i64 8, i64 0, i32 0, metadata !6} ; [ DW_TAG_const_type ]
!9 = metadata !{i32 524324, metadata !1, metadata !"int", metadata !1, i32 0, i64 32, i64 32, i64 0, i32 0, i32 5} ; [ DW_TAG_base_type ]
!10 = metadata !{i32 524545, metadata !0, metadata !"p", metadata !1, i32 10, metadata !7} ; [ DW_TAG_arg_variable ]
!11 = metadata !{i32 524545, metadata !0, metadata !"ch", metadata !1, i32 10, metadata !9} ; [ DW_TAG_arg_variable ]
!12 = metadata !{i32 524544, metadata !13, metadata !"c", metadata !1, i32 11, metadata !6} ; [ DW_TAG_auto_variable ]
!13 = metadata !{i32 524299, metadata !0, i32 10, i32 0, metadata !1, i32 0} ; [ DW_TAG_lexical_block ]
!14 = metadata !{i32 10, i32 0, metadata !0, null}
!15 = metadata !{i32 13, i32 0, metadata !13, null}
!16 = metadata !{i32 15, i32 0, metadata !13, null}
!17 = metadata !{i32 17, i32 0, metadata !13, null}
!18 = metadata !{i32 14, i32 0, metadata !13, null}
!19 = metadata !{i32 16, i32 0, metadata !13, null}
