; ModuleID = 'klee_int.c'
target datalayout = "e-p:32:32:32-i1:8:8-i8:8:8-i16:16:16-i32:32:32-i64:32:64-f32:32:32-f64:32:64-v64:64:64-v128:128:128-a0:0:64-f80:32:32-n8:16:32"
target triple = "i386-pc-linux-gnu"

define i32 @klee_int(i8* %name) nounwind {
entry:
  %x = alloca i32, align 4
  call void @llvm.dbg.value(metadata !{i8* %name}, i64 0, metadata !9), !dbg !12
  call void @llvm.dbg.declare(metadata !{i32* %x}, metadata !10), !dbg !13
  %x1 = bitcast i32* %x to i8*, !dbg !14
  call void @klee_make_symbolic(i8* %x1, i32 4, i8* %name) nounwind, !dbg !14
  %0 = load i32* %x, align 4, !dbg !15
  ret i32 %0, !dbg !15
}

declare void @llvm.dbg.declare(metadata, metadata) nounwind readnone

declare void @klee_make_symbolic(i8*, i32, i8*)

declare void @llvm.dbg.value(metadata, i64, metadata) nounwind readnone

!llvm.dbg.sp = !{!0}
!llvm.dbg.lv.klee_int = !{!9, !10}

!0 = metadata !{i32 524334, i32 0, metadata !1, metadata !"klee_int", metadata !"klee_int", metadata !"klee_int", metadata !1, i32 13, metadata !3, i1 false, i1 true, i32 0, i32 0, null, i1 false, i1 true, i32 (i8*)* @klee_int} ; [ DW_TAG_subprogram ]
!1 = metadata !{i32 524329, metadata !"klee_int.c", metadata !"/home/you/Work/klee/runtime/Intrinsic/", metadata !2} ; [ DW_TAG_file_type ]
!2 = metadata !{i32 524305, i32 0, i32 1, metadata !"klee_int.c", metadata !"/home/you/Work/klee/runtime/Intrinsic/", metadata !"4.2.1 (Based on Apple Inc. build 5658) (LLVM build 2.8)", i1 true, i1 true, metadata !"", i32 0} ; [ DW_TAG_compile_unit ]
!3 = metadata !{i32 524309, metadata !1, metadata !"", metadata !1, i32 0, i64 0, i64 0, i64 0, i32 0, null, metadata !4, i32 0, null} ; [ DW_TAG_subroutine_type ]
!4 = metadata !{metadata !5, metadata !6}
!5 = metadata !{i32 524324, metadata !1, metadata !"int", metadata !1, i32 0, i64 32, i64 32, i64 0, i32 0, i32 5} ; [ DW_TAG_base_type ]
!6 = metadata !{i32 524303, metadata !1, metadata !"", metadata !1, i32 0, i64 32, i64 32, i64 0, i32 0, metadata !7} ; [ DW_TAG_pointer_type ]
!7 = metadata !{i32 524326, metadata !1, metadata !"", metadata !1, i32 0, i64 8, i64 8, i64 0, i32 0, metadata !8} ; [ DW_TAG_const_type ]
!8 = metadata !{i32 524324, metadata !1, metadata !"char", metadata !1, i32 0, i64 8, i64 8, i64 0, i32 0, i32 6} ; [ DW_TAG_base_type ]
!9 = metadata !{i32 524545, metadata !0, metadata !"name", metadata !1, i32 13, metadata !6} ; [ DW_TAG_arg_variable ]
!10 = metadata !{i32 524544, metadata !11, metadata !"x", metadata !1, i32 14, metadata !5} ; [ DW_TAG_auto_variable ]
!11 = metadata !{i32 524299, metadata !0, i32 13, i32 0, metadata !1, i32 0} ; [ DW_TAG_lexical_block ]
!12 = metadata !{i32 13, i32 0, metadata !0, null}
!13 = metadata !{i32 14, i32 0, metadata !11, null}
!14 = metadata !{i32 15, i32 0, metadata !11, null}
!15 = metadata !{i32 16, i32 0, metadata !11, null}
