; ModuleID = 'mempcpy.c'
target datalayout = "e-p:32:32:32-i1:8:8-i8:8:8-i16:16:16-i32:32:32-i64:32:64-f32:32:32-f64:32:64-v64:64:64-v128:128:128-a0:0:64-f80:32:32-n8:16:32"
target triple = "i386-pc-linux-gnu"

define i8* @mempcpy(i8* %destaddr, i8* nocapture %srcaddr, i32 %len) nounwind {
entry:
  tail call void @llvm.dbg.value(metadata !{i8* %destaddr}, i64 0, metadata !9), !dbg !19
  tail call void @llvm.dbg.value(metadata !{i8* %srcaddr}, i64 0, metadata !10), !dbg !19
  tail call void @llvm.dbg.value(metadata !{i32 %len}, i64 0, metadata !11), !dbg !19
  tail call void @llvm.dbg.value(metadata !{i8* %destaddr}, i64 0, metadata !12), !dbg !20
  tail call void @llvm.dbg.value(metadata !{i8* %srcaddr}, i64 0, metadata !16), !dbg !21
  tail call void @llvm.dbg.value(metadata !{null}, i64 0, metadata !11), !dbg !22
  %0 = icmp eq i32 %len, 0
  br i1 %0, label %bb2, label %bb, !dbg !22

bb:                                               ; preds = %entry, %bb
  %indvar = phi i32 [ %indvar.next, %bb ], [ 0, %entry ]
  %src.05 = getelementptr i8* %srcaddr, i32 %indvar
  %dest.04 = getelementptr i8* %destaddr, i32 %indvar
  %1 = load i8* %src.05, align 1, !dbg !23
  store i8 %1, i8* %dest.04, align 1, !dbg !23
  %indvar.next = add i32 %indvar, 1
  %exitcond = icmp eq i32 %indvar.next, %len
  br i1 %exitcond, label %bb1.bb2_crit_edge, label %bb, !dbg !22

bb1.bb2_crit_edge:                                ; preds = %bb
  %scevgep = getelementptr i8* %destaddr, i32 %len
  tail call void @llvm.dbg.value(metadata !{null}, i64 0, metadata !12), !dbg !23
  tail call void @llvm.dbg.value(metadata !{null}, i64 0, metadata !16), !dbg !23
  tail call void @llvm.dbg.value(metadata !{null}, i64 0, metadata !11), !dbg !22
  ret i8* %scevgep, !dbg !24

bb2:                                              ; preds = %entry
  ret i8* %destaddr, !dbg !24
}

declare void @llvm.dbg.value(metadata, i64, metadata) nounwind readnone

!llvm.dbg.sp = !{!0}
!llvm.dbg.lv.mempcpy = !{!9, !10, !11, !12, !16}

!0 = metadata !{i32 524334, i32 0, metadata !1, metadata !"mempcpy", metadata !"mempcpy", metadata !"mempcpy", metadata !1, i32 12, metadata !3, i1 false, i1 true, i32 0, i32 0, null, i1 false, i1 true, i8* (i8*, i8*, i32)* @mempcpy} ; [ DW_TAG_subprogram ]
!1 = metadata !{i32 524329, metadata !"mempcpy.c", metadata !"/home/you/Work/klee/runtime/Intrinsic/", metadata !2} ; [ DW_TAG_file_type ]
!2 = metadata !{i32 524305, i32 0, i32 1, metadata !"mempcpy.c", metadata !"/home/you/Work/klee/runtime/Intrinsic/", metadata !"4.2.1 (Based on Apple Inc. build 5658) (LLVM build 2.8)", i1 true, i1 true, metadata !"", i32 0} ; [ DW_TAG_compile_unit ]
!3 = metadata !{i32 524309, metadata !1, metadata !"", metadata !1, i32 0, i64 0, i64 0, i64 0, i32 0, null, metadata !4, i32 0, null} ; [ DW_TAG_subroutine_type ]
!4 = metadata !{metadata !5, metadata !5, metadata !5, metadata !6}
!5 = metadata !{i32 524303, metadata !1, metadata !"", metadata !1, i32 0, i64 32, i64 32, i64 0, i32 0, null} ; [ DW_TAG_pointer_type ]
!6 = metadata !{i32 524310, metadata !7, metadata !"size_t", metadata !7, i32 326, i64 0, i64 0, i64 0, i32 0, metadata !8} ; [ DW_TAG_typedef ]
!7 = metadata !{i32 524329, metadata !"stddef.h", metadata !"/usr/local/bin/../lib/gcc/i686-pc-linux-gnu/4.2.1/include", metadata !2} ; [ DW_TAG_file_type ]
!8 = metadata !{i32 524324, metadata !1, metadata !"unsigned int", metadata !1, i32 0, i64 32, i64 32, i64 0, i32 0, i32 7} ; [ DW_TAG_base_type ]
!9 = metadata !{i32 524545, metadata !0, metadata !"destaddr", metadata !1, i32 12, metadata !5} ; [ DW_TAG_arg_variable ]
!10 = metadata !{i32 524545, metadata !0, metadata !"srcaddr", metadata !1, i32 12, metadata !5} ; [ DW_TAG_arg_variable ]
!11 = metadata !{i32 524545, metadata !0, metadata !"len", metadata !1, i32 12, metadata !6} ; [ DW_TAG_arg_variable ]
!12 = metadata !{i32 524544, metadata !13, metadata !"dest", metadata !1, i32 13, metadata !14} ; [ DW_TAG_auto_variable ]
!13 = metadata !{i32 524299, metadata !0, i32 12, i32 0, metadata !1, i32 0} ; [ DW_TAG_lexical_block ]
!14 = metadata !{i32 524303, metadata !1, metadata !"", metadata !1, i32 0, i64 32, i64 32, i64 0, i32 0, metadata !15} ; [ DW_TAG_pointer_type ]
!15 = metadata !{i32 524324, metadata !1, metadata !"char", metadata !1, i32 0, i64 8, i64 8, i64 0, i32 0, i32 6} ; [ DW_TAG_base_type ]
!16 = metadata !{i32 524544, metadata !13, metadata !"src", metadata !1, i32 14, metadata !17} ; [ DW_TAG_auto_variable ]
!17 = metadata !{i32 524303, metadata !1, metadata !"", metadata !1, i32 0, i64 32, i64 32, i64 0, i32 0, metadata !18} ; [ DW_TAG_pointer_type ]
!18 = metadata !{i32 524326, metadata !1, metadata !"", metadata !1, i32 0, i64 8, i64 8, i64 0, i32 0, metadata !15} ; [ DW_TAG_const_type ]
!19 = metadata !{i32 12, i32 0, metadata !0, null}
!20 = metadata !{i32 13, i32 0, metadata !13, null}
!21 = metadata !{i32 14, i32 0, metadata !13, null}
!22 = metadata !{i32 16, i32 0, metadata !13, null}
!23 = metadata !{i32 17, i32 0, metadata !13, null}
!24 = metadata !{i32 18, i32 0, metadata !13, null}
